{
  "type": "oracle",
  "host": "localhost",
  "port": 1521,
  "username": "MPSPEFSVIL_CMP",
  "password": "cmp",
  "sid": "xe",
  "logging": true,
  "entities": ["Province","ProvinceCap"],
  "synchronize": true
}